{"page":1,"total_results":10000,"total_pages":500,"results":[{"popularity":1474.355,"vote_count":1628,"video":false,"poster_path":"\/aKx1ARwG55zZ0GpRvU2WrGrCG9o.jpg","id":337401,"adult":false,"backdrop_path":"\/zzWGRw277MNoCs3zhyG3YmYQsXv.jpg","original_language":"en","original_title":"Mulan","genre_ids":[28,12,18,14,10752],"title":"Mulan","vote_average":7.6,"overview":"When the Emperor of China issues a decree that one man per family must serve in the Imperial Chinese Army to defend the country from Huns, Hua Mulan, the eldest daughter of an honored warrior, steps in to take the place of her ailing father. She is spirited, determined and quick on her feet. Disguised as a man by the name of Hua Jun, she is tested every step of the way and must harness her innermost strength and embrace her true potential.","release_date":"2020-09-10"},{"popularity":1728.076,"vote_count":0,"video":false,"poster_path":"\/6CoRTJTmijhBLJTUNoVSUNxZMEI.jpg","id":694919,"adult":false,"backdrop_path":"\/pq0JSpwyT2URytdFG0euztQPAyR.jpg","original_language":"en","original_title":"Money Plane","genre_ids":[28],"title":"Money Plane","vote_average":0,"overview":"A professional thief with $40 million in debt and his family's life on the line must commit one final heist - rob a futuristic airborne casino filled with the world's most dangerous criminals.","release_date":"2020-09-29"},{"popularity":781.348,"vote_count":47,"video":false,"poster_path":"\/ugZW8ocsrfgI95pnQ7wrmKDxIe.jpg","id":724989,"adult":false,"backdrop_path":"\/86L8wqGMDbwURPni2t7FQ0nDjsH.jpg","original_language":"en","original_title":"Hard Kill","genre_ids":[28,53],"title":"Hard Kill","vote_average":5.5,"overview":"The work of billionaire tech CEO Donovan Chalmers is so valuable that he hires mercenaries to protect it, and a terrorist group kidnaps his daughter just to get it.","release_date":"2020-08-25"},{"popularity":780.325,"vote_count":60,"video":false,"poster_path":"\/9Rj8l6gElLpRL7Kj17iZhrT5Zuw.jpg","id":734309,"adult":false,"backdrop_path":"\/7fvdg211A2L0mHddvzyArRuRalp.jpg","original_language":"en","original_title":"Santana","genre_ids":[28],"title":"Santana","vote_average":5.9,"overview":"Two brothers — one a narcotics agent and the other a general — finally discover the identity of the drug lord who murdered their parents decades ago. They may kill each other before capturing the bad guys.","release_date":"2020-08-28"},{"popularity":627.613,"vote_count":138,"video":false,"poster_path":"\/sMO1v5TUf8GOJHbJieDXsgWT2Ud.jpg","id":438396,"adult":false,"backdrop_path":"\/qGZe9qTuydxyJYQ60XDtEckzLR8.jpg","original_language":"es","original_title":"Orígenes secretos","genre_ids":[18,53],"title":"Unknown Origins","vote_average":6.3,"overview":"In Madrid, Spain, a mysterious serial killer ruthlessly murders his victims by recreating the first appearance of several comic book superheroes. Cosme, a veteran police inspector who is about to retire, works on the case along with the tormented inspector David Valentín and his own son Jorge Elías, a nerdy young man who owns a comic book store.","release_date":"2020-08-28"},{"popularity":632.634,"vote_count":209,"video":false,"poster_path":"\/uOw5JD8IlD546feZ6oxbIjvN66P.jpg","id":718444,"adult":false,"backdrop_path":"\/x4UkhIQuHIJyeeOTdcbZ3t3gBSa.jpg","original_language":"en","original_title":"Rogue","genre_ids":[28],"title":"Rogue","vote_average":5.9,"overview":"Battle-hardened O’Hara leads a lively mercenary team of soldiers on a daring mission: rescue hostages from their captors in remote Africa. But as the mission goes awry and the team is stranded, O’Hara’s squad must face a bloody, brutal encounter with a gang of rebels.","release_date":"2020-08-20"},{"popularity":629.739,"vote_count":441,"video":false,"poster_path":"\/sy6DvAu72kjoseZEjocnm2ZZ09i.jpg","id":581392,"adult":false,"backdrop_path":"\/gEjNlhZhyHeto6Fy5wWy5Uk3A9D.jpg","original_language":"ko","original_title":"반도","genre_ids":[28,27,53],"title":"Peninsula","vote_average":7.2,"overview":"A soldier and his team battle hordes of post-apocalyptic zombies in the wastelands of the Korean Peninsula.","release_date":"2020-07-15"},{"popularity":510.45,"vote_count":1214,"video":false,"poster_path":"\/TnOeov4w0sTtV2gqICqIxVi74V.jpg","id":605116,"adult":false,"backdrop_path":"\/qVygtf2vU15L2yKS4Ke44U4oMdD.jpg","original_language":"en","original_title":"Project Power","genre_ids":[28,80,878],"title":"Project Power","vote_average":6.7,"overview":"An ex-soldier, a teen and a cop collide in New Orleans as they hunt for the source behind a dangerous new pill that grants users temporary superpowers.","release_date":"2020-08-14"},{"popularity":417.812,"vote_count":63,"video":false,"poster_path":"\/n6hptKS7Y0ZjkYwbqKOK3jz9XAC.jpg","id":594328,"adult":false,"backdrop_path":"\/lkeBhXGJFRlhI7cBWn8LQQAdZqK.jpg","original_language":"en","original_title":"Phineas and Ferb  The Movie Candace Against the Universe","genre_ids":[16,35,10402,878,10751,10770],"title":"Phineas and Ferb  The Movie Candace Against the Universe","vote_average":7,"overview":"Phineas and Ferb travel across the galaxy to rescue their older sister Candace, who has been abducted by aliens and taken to a utopia in a far-off planet, free of her pesky little brothers.","release_date":"2020-08-28"},{"popularity":562.265,"vote_count":284,"video":false,"poster_path":"\/kiX7UYfOpYrMFSAGbI6j1pFkLzQ.jpg","id":613504,"adult":false,"backdrop_path":"\/r5srC0cqU36n38azFnCyReEksiR.jpg","original_language":"en","original_title":"After We Collided","genre_ids":[18,10749],"title":"After We Collided","vote_average":6.9,"overview":"Tessa finds herself struggling with her complicated relationship with Hardin; she faces a dilemma that could change their lives forever.","release_date":"2020-09-02"},{"popularity":389.806,"vote_count":75,"video":false,"poster_path":"\/i4kPwXPlM1iy8Jf3S1uuLuwqQAV.jpg","id":721452,"adult":false,"backdrop_path":"\/riDrpqQtZpXGeiJdlmfcwwPH7nN.jpg","original_language":"en","original_title":"One Night in Bangkok","genre_ids":[28,53],"title":"One Night in Bangkok","vote_average":7.2,"overview":"A hit man named Kai flies into Bangkok, gets a gun, and orders a cab. He offers a professional female driver big money to be his all-night driver. But when she realizes Kai is committing brutal murders at each stop, it's too late to walk away. Meanwhile, an offbeat police detective races to decode the string of slayings before more blood is spilled.","release_date":"2020-08-25"},{"popularity":357.955,"vote_count":274,"video":false,"poster_path":"\/uGhQ2ZGBpzCj6wC5jUrybsZuPTI.jpg","id":539885,"adult":false,"backdrop_path":"\/dbOqWLNWg1Xphshyus0UMSN8fFP.jpg","original_language":"en","original_title":"Ava","genre_ids":[28,80,18,53],"title":"Ava","vote_average":5.9,"overview":"A black ops assassin is forced to fight for her own survival after a job goes dangerously wrong.","release_date":"2020-08-06"},{"popularity":367.575,"vote_count":76,"video":false,"poster_path":"\/eDnHgozW8vfOaLHzfpHluf1GZCW.jpg","id":606234,"adult":false,"backdrop_path":"\/u9YEh2xVAPVTKoaMNlB5tH6pXkm.jpg","original_language":"en","original_title":"Archive","genre_ids":[878],"title":"Archive","vote_average":6.1,"overview":"2038: George Almore is working on a true human-equivalent AI, and his latest prototype is almost ready. This sensitive phase is also the riskiest as he has a goal that must be hidden at all costs—being reunited with his dead wife.","release_date":"2020-08-13"},{"popularity":353.124,"vote_count":267,"video":false,"poster_path":"\/imy1OoT1xddt2kqw6hhc4v01e8i.jpg","id":623491,"adult":false,"backdrop_path":"\/naUJGskMlDg2HZ0FhsaMG5xPF2K.jpg","original_language":"en","original_title":"The Babysitter: Killer Queen","genre_ids":[35,27],"title":"The Babysitter: Killer Queen","vote_average":6.7,"overview":"Two years after defeating a satanic cult led by his babysitter Bee, Cole's trying to forget his past and focus on surviving high school. But when old enemies unexpectedly return, Cole will once again have to outsmart the forces of evil.","release_date":"2020-09-10"},{"popularity":329.494,"vote_count":393,"video":false,"poster_path":"\/kPzcvxBwt7kEISB9O4jJEuBn72t.jpg","id":677638,"adult":false,"backdrop_path":"\/pO1SnM5a1fEsYrFaVZW78Wb0zRJ.jpg","original_language":"en","original_title":"We Bare Bears: The Movie","genre_ids":[12,16,35,10751],"title":"We Bare Bears: The Movie","vote_average":7.8,"overview":"When Grizz, Panda, and Ice Bear's love of food trucks and viral videos went out of hand, it catches the attention of Agent Trout from the National Wildlife Control, who pledges to restore the “natural order” by separating them forever. Chased away from their home, the Bears embark on an epic road trip as they seek refuge in Canada, with their journey being filled with new friends, perilous obstacles, and huge parties. The risky journey also forces the Bears to face how they first met and became brothers, in order to keep their family bond from splitting apart.","release_date":"2020-06-30"},{"popularity":305.08,"vote_count":147,"video":false,"poster_path":"\/aVbqhqYtlxwEGihTEhewZAgDOCX.jpg","id":489326,"adult":false,"backdrop_path":"\/dFB6Tiy3z2xRLbnEUB5ocApT5xG.jpg","original_language":"en","original_title":"Mortal","genre_ids":[28,14,53],"title":"Mortal","vote_average":6.7,"overview":"A young boy must discover the origins of his extraordinary powers before he is captured by authorities hell-bent on condemning him for an accidental murder.","release_date":"2020-02-28"},{"popularity":316.997,"vote_count":8,"video":false,"poster_path":"\/zXAwq18CJYmzhLZNbLpBf3dG3A5.jpg","id":546724,"adult":false,"backdrop_path":"\/vUI5FHBCjBHrRCf6ZEVf8uA4VrE.jpg","original_language":"en","original_title":"We Summon the Darkness","genre_ids":[27,53],"title":"We Summon the Darkness","vote_average":6.1,"overview":"Three best friends attending a heavy-metal show cross paths with sadistic killers after they travel to a secluded country home for an after party.","release_date":"2020-09-17"},{"popularity":300.532,"vote_count":108,"video":false,"poster_path":"\/lv3RonWge4GlC9ymNzC0oWpFCfv.jpg","id":611395,"adult":false,"backdrop_path":"\/qXACJOuyklS0BpvO8ALLkkrsv7W.jpg","original_language":"zh","original_title":"征途","genre_ids":[28,12,14],"title":"Double World","vote_average":6.9,"overview":"Keen to bring honor to his clan, young villager Dong Yilong embarks on a perilous journey to compete in a tournament that selects warriors for battle.","release_date":"2020-07-24"},{"popularity":292.115,"vote_count":86,"video":false,"poster_path":"\/sDi6wKgECUjDug2gn4uODSqZ3yC.jpg","id":632618,"adult":false,"backdrop_path":"\/cVdYaAQmd5DZNdo0KFJruz7JpUs.jpg","original_language":"es","original_title":"Crímenes de familia","genre_ids":[80,18,53],"title":"The Crimes That Bind","vote_average":6.8,"overview":"When her son is accused of raping and trying to murder his ex-wife, Alicia embarks on a journey that will change her life forever.","release_date":"2020-08-20"},{"popularity":306.851,"vote_count":5168,"video":false,"poster_path":"\/y95lQLnuNKdPAzw9F9Ab8kJ80c3.jpg","id":38700,"adult":false,"backdrop_path":"\/upUy2QhMZEmtypPW3PdieKLAHxh.jpg","original_language":"en","original_title":"Bad Boys for Life","genre_ids":[28,80,53],"title":"Bad Boys for Life","vote_average":7.3,"overview":"Marcus and Mike are forced to confront new threats, career changes, and midlife crises as they join the newly created elite team AMMO of the Miami police department to take down the ruthless Armando Armas, the vicious leader of a Miami drug cartel.","release_date":"2020-01-15"}]}